{
  "name":"Mark",
  "videos":[

              {"title":"Learn React - React Crash Course 2018 - React Tutorial with Examples | Mosh","id":"Ke90Tje7VS0"},
              {"title":"Introduction to Angular JS","id":"8ILQOFAgaXE"}
           ]
}
